{
  "EnterCityText" : "３－３　「C」",
  "CityName" : "C",
  "Flavor" : "ふれーばーふれーばーふれーばーふれーばーふれーばー",
  "MinLengthOfStay" : "@OneDay",
  "Wealth" : 50,
  "Drawers" : [
    {
      "Position": [10, 20],
      "Content" : -1,
      "Probability" : 10,
      "Suspicious" : 5,
      "IsUnique" : false
    },
    {
      "Position": [10, 20],
      "Content" : 1,
      "Probability" : 70,
      "Suspicious" : 10,
      "IsUnique" : false
    },
    {
      "Position": [10, 20],
      "Content" : 2,
      "Probability" : 10,
      "Suspicious" : 1,
      "IsUnique" : false
    },
    {
      "Position": [10, 20],
      "Content" : 3,
      "Probability" : 5,
      "Suspicious" : 80,
      "IsUnique" : false
    },
    {
      "Position": [10, 20],
      "Content" : 4,
      "Probability" : 5,
      "Suspicious" : 70,
      "IsUnique" : true
    }
  ],
  
  "Inhabitants" : [
    {
      "Name"        : "ヨスガ",
      "Personality" : [[0, 100]],
      "Scenario"      : "C-2-1-Yosuga",
      "Position"     : [100, 100]
    }
  ],
  
  "Shops" : {
    "Weapon" : {
      "Position" : [20, 100],
      "Goods" : [[1, 120], [2, 180]]
    },
    "Protector" : {
      "Position" : [50, 50],
      "Goods" : [[2, 50], [5, 80]]
    },
    "Accessory" : {
      "Position" : [200, 50],
      "Goods" : [[1, 80], [2, 100]]
    }
  }
}
