ID	Name	Effect	Permanent	Description	Flavor
1	{"SicereliaKingdom":"薬草", "DRAGONQUEST":"やくそう"}	Heal:"20+RAND[-2,2]"	0	個体のHPが20程度回復する	{"SicereliaKingdom": "薬草のフレーバー"}
2	{"SicereliaKingdom":"薬草＋", "DRAGONQUEST":"やくそう"}	Heal:"40+RAND[-2,2]"	0	個体のHPが40程度回復する	{"SicereliaKingdom": "薬草＋のふれ（ｒｙ"}
3	{"SicereliaKingdom":"薬草＋＋", "DRAGONQUEST":"やくそう"}	Heal:"Target.MaxHP-Target.HP"	0	個体のHPが完全回復する	{"SicereliaKingdom": "薬草＋＋のふれふれふれふれふれふれふれふれふれふれふれふれふれふれふれふれふれふれふれふれふれふれふれふれふれふれふれふれふれふれふれふれふれふれふれふれふれふれふれふれふれふれふれふれふれふれふれふれふれふれふれふれふれふれふれふれふれふれふれふれふれふれふれふれふれふれふれふれふれふれふれふれふれふれふれふれふれふれふれふれ"}
4	{"SicereliaKingdom":"薬草", "DRAGONQUEST":"やくそう"}	Heal:"20+RAND[-2,2]"	0		
5	{"SicereliaKingdom":"薬草", "DRAGONQUEST":"やくそう"}	Heal:"20+RAND[-2,2]"	0		
6	{"SicereliaKingdom":"薬草", "DRAGONQUEST":"やくそう"}	Heal:"20+RAND[-2,2]"	0		
7	{"SicereliaKingdom":"薬草", "DRAGONQUEST":"やくそう"}	Heal:"20+RAND[-2,2]"	0		
8	{"SicereliaKingdom":"薬草", "DRAGONQUEST":"やくそう"}	Heal:"20+RAND[-2,2]"	0		
9	{"SicereliaKingdom":"薬草", "DRAGONQUEST":"やくそう"}	Heal:"20+RAND[-2,2]"	0		
10	{"SicereliaKingdom":"薬草", "DRAGONQUEST":"やくそう"}	Heal:"20+RAND[-2,2]"	0		
11	{"SicereliaKingdom":"薬草", "DRAGONQUEST":"やくそう"}	Heal:"20+RAND[-2,2]"	0		
12	{"SicereliaKingdom":"薬草", "DRAGONQUEST":"やくそう"}	Heal:"20+RAND[-2,2]"	0		
13	{"SicereliaKingdom":"薬草", "DRAGONQUEST":"やくそう"}	Heal:"20+RAND[-2,2]"	0		
14	{"SicereliaKingdom":"薬草", "DRAGONQUEST":"やくそう"}	Heal:"20+RAND[-2,2]"	0		
15	{"SicereliaKingdom":"薬草", "DRAGONQUEST":"やくそう"}	Heal:"20+RAND[-2,2]"	0		
16	{"SicereliaKingdom":"薬草", "DRAGONQUEST":"やくそう"}	Heal:"20+RAND[-2,2]"	0		
17	{"SicereliaKingdom":"薬草", "DRAGONQUEST":"やくそう"}	Heal:"20+RAND[-2,2]"	0		
18	{"SicereliaKingdom":"薬草", "DRAGONQUEST":"やくそう"}	Heal:"20+RAND[-2,2]"	0		
19	{"SicereliaKingdom":"薬草", "DRAGONQUEST":"やくそう"}	Heal:"20+RAND[-2,2]"	0		
20	{"SicereliaKingdom":"薬草", "DRAGONQUEST":"やくそう"}	Heal:"20+RAND[-2,2]"	0		
21	{"SicereliaKingdom":"薬草", "DRAGONQUEST":"やくそう"}	Heal:"20+RAND[-2,2]"	0		
22	{"SicereliaKingdom":"薬草", "DRAGONQUEST":"やくそう"}	Heal:"20+RAND[-2,2]"	0		
23	{"SicereliaKingdom":"薬草", "DRAGONQUEST":"やくそう"}	Heal:"20+RAND[-2,2]"	0		
24	{"SicereliaKingdom":"薬草", "DRAGONQUEST":"やくそう"}	Heal:"20+RAND[-2,2]"	0		
25	{"SicereliaKingdom":"薬草", "DRAGONQUEST":"やくそう"}	Heal:"20+RAND[-2,2]"	0		
26	{"SicereliaKingdom":"薬草", "DRAGONQUEST":"やくそう"}	Heal:"20+RAND[-2,2]"	0		
27	{"SicereliaKingdom":"薬草", "DRAGONQUEST":"やくそう"}	Heal:"20+RAND[-2,2]"	0		
28	{"SicereliaKingdom":"薬草", "DRAGONQUEST":"やくそう"}	Heal:"20+RAND[-2,2]"	0		
29	{"SicereliaKingdom":"薬草", "DRAGONQUEST":"やくそう"}	Heal:"20+RAND[-2,2]"	0		
30	{"SicereliaKingdom":"薬草", "DRAGONQUEST":"やくそう"}	Heal:"20+RAND[-2,2]"	0		