ID	Name	Attributions	Gold	Rank	IsStoryItem
1	{"SicereliaKingdom":"剣1", "DQ":"鋼の剣"}	[1, 101]	10	1	0
2	{"SicereliaKingdom":"剣2", "DQ":"鋼の剣"}	[1, 101]	10	2	0
3	{"SicereliaKingdom":"剣3", "DQ":"鋼の剣"}	[1, 101]	10	3	0
4	{"SicereliaKingdom":"剣4", "DQ":"鋼の剣"}	[1, 101]	10	4	0
5	{"SicereliaKingdom":"剣5", "DQ":"鋼の剣"}	[1, 101]	10	5	0
6	{"SicereliaKingdom":"剣6", "DQ":"鋼の剣"}	[1, 101]	10	6	0
7	{"SicereliaKingdom":"剣7", "DQ":"鋼の剣"}	[1, 101]	10	7	0
8	{"SicereliaKingdom":"剣8", "DQ":"鋼の剣"}	[1, 101]	10	8	0
9	{"SicereliaKingdom":"ロトの剣", "DQ":"ロトの剣"}	[1, 101]	10	9	1
10	{"SicereliaKingdom":"剣10", "DQ":"鋼の剣"}	[1, 101]	10	10	0
11	{"SicereliaKingdom":"剣", "DQ":"鋼の剣"}	[1, 101]	10	11	0
12	{"SicereliaKingdom":"剣", "DQ":"鋼の剣"}	[1, 101]	10	12	0
13	{"SicereliaKingdom":"剣", "DQ":"鋼の剣"}	[1, 101]	10	13	0
14	{"SicereliaKingdom":"剣", "DQ":"鋼の剣"}	[1, 101]	10	14	0
15	{"SicereliaKingdom":"剣", "DQ":"鋼の剣"}	[1, 101]	10	15	0
16	{"SicereliaKingdom":"剣", "DQ":"鋼の剣"}	[1, 101]	10	16	0
17	{"SicereliaKingdom":"剣", "DQ":"鋼の剣"}	[1, 101]	10	17	0
18	{"SicereliaKingdom":"剣", "DQ":"鋼の剣"}	[1, 101]	10	18	0
19	{"SicereliaKingdom":"剣", "DQ":"鋼の剣"}	[1, 101]	10	19	0
20	{"SicereliaKingdom":"剣", "DQ":"鋼の剣"}	[1, 101]	10	20	0
21	{"SicereliaKingdom":"剣", "DQ":"鋼の剣"}	[1, 101]	10	21	0
22	{"SicereliaKingdom":"剣", "DQ":"鋼の剣"}	[1, 101]	10	22	0
23	{"SicereliaKingdom":"剣", "DQ":"鋼の剣"}	[1, 101]	10	23	0
24	{"SicereliaKingdom":"剣", "DQ":"鋼の剣"}	[1, 101]	10	24	0
25	{"SicereliaKingdom":"剣", "DQ":"鋼の剣"}	[1, 101]	10	25	0
26	{"SicereliaKingdom":"剣", "DQ":"鋼の剣"}	[1, 101]	10	26	0
27	{"SicereliaKingdom":"剣", "DQ":"鋼の剣"}	[1, 101]	10	27	0
28	{"SicereliaKingdom":"剣", "DQ":"鋼の剣"}	[1, 101]	10	28	0
29	{"SicereliaKingdom":"剣", "DQ":"鋼の剣"}	[1, 101]	10	29	0
30	{"SicereliaKingdom":"剣", "DQ":"鋼の剣"}	[1, 101]	10	30	0