{
  "EnterDungeonText" : "４－１　「ダンジョン」",
  "DungeonName" : "だんじょん",
  "Flavor" : "ふれーばーふれーばーふれーばーふれーばーふれーばー",
    "StartPosition" : "1",
    "Graph" : [
        {
            "From" : "1",
            "To"   : "2",
            "RequiredEC" : 2,
            "IsBidirectional" : false,
            "Windfalls" : [
                {"EC": 5, "ItemList":[1, 1]},
                {"EC": 10,"ItemList":[1, 2]}
            ],
            "EncountEnemies" : [
                {"Probability": 12.5, "EnemyGroup":[1, 1]},
                {"Probability": 12.5, "EnemyGroup":[1, 2]},
                {"Probability": 12.5, "EnemyGroup":[1, 3]},
                {"Probability": 12.5,  "EnemyGroup":[2, 2]},
                {"Probability": 12.5,  "EnemyGroup":[2, 3]},
                {"Probability": 37.5,  "EnemyGroup":[]}
            ],
            "BezierPathID" : "1-1"
        },
        
        {
            "From" : "2",
            "To"   : "3",
            "RequiredEC" : 1,
            "IsBidirectional" : true,
            "Windfalls" : [
                {"EC": 5, "ItemList":[1, 1]},
                {"EC": 10,"ItemList":[1, 2]}
            ],
            "EncountEnemies" : [
                {"Probability": 50, "EnemyGroup":[1, 2, 3]},
                {"Probability": 25, "EnemyGroup":[1, 1, 1]},
                {"Probability": 20, "EnemyGroup":[1, 2]},
                {"Probability": 5,  "EnemyGroup":[10]}
            ],
            "BezierPathID" : "1-2"
        },

        {
            "From" : "2",
            "To"   : "4",
            "RequiredEC"   : 2,
            "IsBidirectional" : false,
            "Windfalls" : [
                {"EC": 5, "ItemList":[1, 1]},
                {"EC": 10,"ItemList":[1, 2]}
            ],
            "EncountEnemies" : [
                {"Probability": 50, "EnemyGroup":[1, 5]},
                {"Probability": 25, "EnemyGroup":[2, 1]},
                {"Probability": 20, "EnemyGroup":[2, 3, 2]},
                {"Probability": 5,  "EnemyGroup":[10]}
            ],
            "BezierPathID" : "1-3"
        },

        {
            "From" : "4",
            "To"   : "5",
            "RequiredEC"   : 1,
            "IsBidirectional" : true,
            "Windfalls" : [
                {"EC": 5, "ItemList":[1, 1]},
                {"EC": 10,"ItemList":[1, 2]}
            ],
            "EncountEnemies" : [
                {"Probability": 50, "EnemyGroup":[1, 2, 3]},
                {"Probability": 25, "EnemyGroup":[6, 1]},
                {"Probability": 20, "EnemyGroup":[2, 7, 2]},
                {"Probability": 5,  "EnemyGroup":[10]}
            ],
            "BezierPathID" : "1-4"
        },

        {
            "From" : "4",
            "To"   : "6",
            "RequiredEC"   : 1,
            "IsBidirectional" : false,
            "Windfalls" : [
                {"EC": 5, "ItemList":[1, 1]},
                {"EC": 10,"ItemList":[1, 2]}
            ],
            "EncountEnemies" : [
                {"Probability": 50, "EnemyGroup":[1, 2, 3]},
                {"Probability": 25, "EnemyGroup":[1, 1, 1]},
                {"Probability": 20, "EnemyGroup":[8, 3, 2]},
                {"Probability": 5,  "EnemyGroup":[10]}
            ],
            "BezierPathID" : "1-5"
        },

        {
            "From" : "6",
            "To"   : "7",
            "RequiredEC"   : 1,
            "IsBidirectional" : false,
            "Windfalls" : [
                {"EC": 5, "ItemList":[1, 1]},
                {"EC": 10,"ItemList":[1, 2]}
            ],
            "EncountEnemies" : [
                {"Probability": 50, "EnemyGroup":[1, 2, 3]},
                {"Probability": 25, "EnemyGroup":[1, 1, 1]},
                {"Probability": 20, "EnemyGroup":[2, 3, 2]},
                {"Probability": 5,  "EnemyGroup":[10]}
            ],
            "BezierPathID" : "1-6"
        },

        {
            "From" : "7",
            "To"   : "8",
            "RequiredEC"   : 0,
            "IsBidirectional" : false,
            "Windfalls" : [
                {"EC": 5, "ItemList":[1, 1]},
                {"EC": 10,"ItemList":[1, 2]}
            ],
            "EncountEnemies" : [
                {"Probability": 50, "EnemyGroup":[1, 2, 3]},
                {"Probability": 25, "EnemyGroup":[1, 1, 1]},
                {"Probability": 20, "EnemyGroup":[2, 3, 2]},
                {"Probability": 5,  "EnemyGroup":[10]}
            ],
            "BezierPathID" : "1-7"
        },

        {
            "From" : "8",
            "To"   : "6",
            "RequiredEC"   : 1,
            "IsBidirectional" : false,
            "Windfalls" : [
                {"EC": 5, "ItemList":[1, 1]},
                {"EC": 10,"ItemList":[1, 2]}
            ],
            "EncountEnemies" : [
                {"Probability": 50, "EnemyGroup":[1, 2, 3]},
                {"Probability": 25, "EnemyGroup":[1, 1, 1]},
                {"Probability": 20, "EnemyGroup":[2, 3, 2]},
                {"Probability": 5,  "EnemyGroup":[10]}
            ],
            "BezierPathID" : "1-8"
        },

        {
            "From" : "6",
            "To"   : "9",
            "RequiredEC"   : 1,
            "IsBidirectional" : false,
            "Windfalls" : [
                {"EC": 5, "ItemList":[1, 1]},
                {"EC": 10,"ItemList":[1, 2]}
            ],
            "EncountEnemies" : [
                {"Probability": 50, "EnemyGroup":[1, 2, 3]},
                {"Probability": 25, "EnemyGroup":[1, 1, 1]},
                {"Probability": 20, "EnemyGroup":[2, 3, 2]},
                {"Probability": 5,  "EnemyGroup":[10]}
            ],
            "BezierPathID" : "1-9"
        }
    ],

	"TriggerActions" : [
		{
			"ForkPointID" : "1",
			"Command": ["Scenario", "D-4-1-EnterDungeon"]
		},
		{
			"ForkPointID" : "2",
			"Command" : ["Treasure", [1, 1, 2]]
		},
		{
			"ForkPointID" : "3",
			"Command" : ["GenLampMovers",
                [
    				{
    					"Type" : "StrongEnemy",
    					"MovingMode" : "Follow",
    					"Speed" : 10,
                        "Scenario" : "D-4-1-EncountStrongEnemy"
    				},
    				{
    					"Type" : "Enemy",
    					"MovingMode" : "Vector",
    					"Vector" : [5.0, 2.0],
    					"Speed" : 10,
                        "Scenario" : "D-4-1-EncountWeakEnemy"
    				}
                ]
            ]
		},
		{
			"ForkPointID" : "4",
			"Command" : ["Exit", "Entrance"]
		}
	]
}